{
  "images" : [
    {
      "idiom" : "universal",
      "scale" : "1x"
    },
    {
      "filename" : "WhatsApp Image 2023-01-03 at 6.03.55 PM-1.jpeg",
      "idiom" : "universal",
      "scale" : "2x"
    },
    {
      "filename" : "WhatsApp Image 2023-01-03 at 6.03.55 PM.jpeg",
      "idiom" : "universal",
      "scale" : "3x"
    }
  ],
  "info" : {
    "author" : "xcode",
    "version" : 1
  }
}
